<?xml version="1.0" encoding="UTF-8" standalone="no"?>
<svg
   xmlns:dc="http://purl.org/dc/elements/1.1/"
   xmlns:cc="http://creativecommons.org/ns#"
   xmlns:rdf="http://www.w3.org/1999/02/22-rdf-syntax-ns#"
   xmlns:svg="http://www.w3.org/2000/svg"
   xmlns="http://www.w3.org/2000/svg"
   width="345.69821"
   height="100"
   viewBox="0 0 345.69821 100"
   version="1.1"
   xml:space="preserve"
   style="clip-rule:evenodd;fill-rule:evenodd;stroke-linejoin:round;stroke-miterlimit:1.41421"
   id="svg39"><metadata
     id="metadata45"><rdf:RDF><cc:Work
         rdf:about=""><dc:format>image/svg+xml</dc:format><dc:type
           rdf:resource="http://purl.org/dc/dcmitype/StillImage" /><dc:title></dc:title></cc:Work></rdf:RDF></metadata><defs
     id="defs43" /><g
     id="sf.-logo.-horizontal"
     transform="matrix(0.73624616,0,0,0.73624616,-0.16888419,-3.5387281e-4)"><g
       id="sf.-logo.-horizontal__circle"><path
         d="m 124.028,22.221 c -0.24,-0.025 -0.477,-0.051 -0.722,-0.076 C 45.058,12.947 35.751,56.486 35.751,56.486 l 1.371,19.283 c 2.815,-6.653 8.098,-16.684 17.214,-26.354 12.367,-13.12 34.12,-27.58 69.692,-27.194"
         style="fill:#00adee"
         id="path10" /><path
         d="m 56.394,51.356 c -9.269,9.832 -14.484,20.21 -17.09,26.6 l 25.893,-9.027 6.008,-8.925 C 79.948,47.067 96.512,30.171 125.156,25.074 89.901,24.379 68.49,38.524 56.394,51.356"
         style="fill:#046a9f"
         id="path12" /><path
         d="m 12.935,119.601 c 0.238,0.04 0.472,0.081 0.716,0.121 77.505,14.155 89.562,-28.704 89.562,-28.704 L 103.069,71.685 C 99.837,78.147 93.927,87.822 84.215,96.893 71.039,109.2 48.41,122.246 12.935,119.601"
         style="fill:#00adee"
         id="path14" /><path
         d="M 82.285,94.825 C 92.16,85.602 98.024,75.577 101.031,69.364 l -26.414,7.364 -6.564,8.524 c -9.548,12.356 -27.152,28.164 -56.063,31.429 35.14,2.936 57.407,-9.819 70.295,-21.856"
         style="fill:#046a9f"
         id="path16" /><path
         d="m 11.026,63.255 c 3.195,-32.12 31.925,-55.652 64.046,-52.457 6.038,0.6 11.772,2.104 17.082,4.363 5.139,-0.118 12.355,0.088 21.707,1.202 C 103.543,7.606 90.566,1.781 76.112,0.343 38.227,-3.425 4.338,24.329 0.572,62.214 c -1.815,18.242 3.682,35.555 14.097,49.03 3.603,-0.536 7.568,-1.359 11.518,-2.617 C 15.301,96.767 9.31,80.501 11.026,63.255"
         style="fill:#046a9f"
         id="path18" /><path
         d="m 125.509,31.816 c -4.684,0.737 -8.452,1.55 -11.026,2.171 7.893,11.021 11.988,24.829 10.544,39.346 -3.157,31.733 -31.54,54.982 -63.273,51.825 -0.131,-0.014 -0.26,-0.033 -0.391,-0.046 -9.272,2.117 -19.995,2.213 -27.361,1.921 7.991,4.516 17.02,7.488 26.726,8.453 37.426,3.724 70.906,-23.697 74.628,-61.126 1.539,-15.463 -2.242,-30.249 -9.847,-42.544"
         style="fill:#046a9f"
         id="path20" /></g><g
       id="sf_logo_horizontal__lettering"><path
         d="m 170.229,89.503 c 0,0 7.543,9.213 21.241,9.213 12.831,0 20.287,-9.023 20.287,-19.756 0,-21.561 -28.957,-18.616 -28.957,-30.584 0,-4.749 4.075,-8.073 9.277,-8.073 7.716,0 13.612,5.888 13.612,5.888 l 4.855,-9.972 c 0,0 -6.243,-7.219 -18.38,-7.219 -11.791,0 -20.635,8.358 -20.635,19.566 0,20.706 29.044,18.616 29.044,30.679 0,5.509 -4.248,8.168 -8.93,8.168 -8.669,0 -15.345,-7.124 -15.345,-7.124 z"
         style="fill:#046a9f"
         id="path23" /><path
         d="m 216.266,73.356 c 0,14.057 9.363,25.36 24.015,25.36 11.878,0 18.207,-7.884 18.207,-7.884 l -4.249,-8.548 c 0,0 -5.548,6.174 -13.004,6.174 -8.41,0 -13.785,-7.029 -13.785,-15.197 0,-8.263 5.288,-15.007 13.438,-15.007 6.936,0 11.531,5.224 11.531,5.224 l 4.855,-8.263 c 0,0 -5.462,-7.219 -16.993,-7.219 -14.652,0 -24.015,11.588 -24.015,25.36 z"
         style="fill:#046a9f"
         id="path25" /><path
         d="m 264.99,40.873 h 10.924 V 30.14 H 264.99 Z m 0,56.703 h 11.011 V 49.136 H 264.99 Z"
         style="fill:#046a9f"
         id="path27" /><path
         d="m 288.138,97.576 h 11.184 V 70.317 h 20.375 V 59.774 H 299.322 V 40.683 h 24.189 V 30.14 h -35.373 z"
         style="fill:#00adee"
         id="path29" /><path
         d="m 329.927,82.474 c 0,13.867 7.543,15.577 13.612,15.577 1.82,0 3.467,-0.285 3.467,-0.285 V 87.223 c 0,0 -0.78,0.095 -1.647,0.095 -2.861,0 -4.508,-1.33 -4.508,-6.649 V 30.14 h -10.924 z"
         style="fill:#00adee"
         id="path31" /><path
         d="m 350.128,73.356 c 0,14.912 10.837,25.36 24.362,25.36 13.438,0 24.275,-10.448 24.275,-25.36 0,-14.817 -10.837,-25.36 -24.362,-25.36 -13.438,0 -24.275,10.543 -24.275,25.36 z m 11.184,0 c 0,-8.928 5.982,-15.102 13.178,-15.102 7.109,0 13.091,6.174 13.091,15.102 0,9.023 -5.982,15.102 -13.091,15.102 -7.196,0 -13.178,-6.079 -13.178,-15.102 z"
         style="fill:#00adee"
         id="path33" /><path
         d="m 414.544,97.576 h 12.311 l 7.456,-27.639 c 0.694,-2.565 1.041,-5.224 1.041,-5.224 h 0.173 c 0,0 0.434,2.659 1.127,5.224 l 7.456,27.639 h 12.225 l 13.438,-48.44 h -11.444 l -7.716,31.818 c -0.607,2.565 -0.954,5.129 -0.954,5.129 h -0.173 c 0,0 -0.347,-2.564 -0.954,-5.129 l -8.15,-31.723 h -9.797 l -8.149,31.723 c -0.607,2.565 -1.041,5.129 -1.041,5.129 h -0.173 c 0,0 -0.26,-2.564 -0.867,-5.129 l -7.716,-31.818 h -11.618 z"
         style="fill:#00adee"
         id="path35" /></g></g></svg>
